<?xml version="1.0" encoding="UTF-8" standalone="no"?>
<svg
   xmlns:dc="http://purl.org/dc/elements/1.1/"
   xmlns:cc="http://creativecommons.org/ns#"
   xmlns:rdf="http://www.w3.org/1999/02/22-rdf-syntax-ns#"
   xmlns:svg="http://www.w3.org/2000/svg"
   xmlns:sodipodi="http://sodipodi.sourceforge.net/DTD/sodipodi-0.dtd"
   xmlns:inkscape="http://www.inkscape.org/namespaces/inkscape"
   width="25"
   id="svg3721"
   viewBox="0 0 250 320"
   version="1.1"
   height="32"
   sodipodi:docname="logo_plain.svg"
   inkscape:version="0.92.4 (5da689c313, 2019-01-14)">
  <sodipodi:namedview
     pagecolor="#ffffff"
     bordercolor="#666666"
     borderopacity="1"
     objecttolerance="10"
     gridtolerance="10"
     guidetolerance="10"
     inkscape:pageopacity="0"
     inkscape:pageshadow="2"
     inkscape:window-width="640"
     inkscape:window-height="480"
     id="namedview7"
     showgrid="false"
     scale-x="10"
     inkscape:zoom="7.375"
     inkscape:cx="10.127119"
     inkscape:cy="13.968538"
     inkscape:window-x="0"
     inkscape:window-y="0"
     inkscape:window-maximized="0"
     inkscape:current-layer="svg3721" />
  <metadata
     id="metadata3727">
    <rdf:RDF>
      <cc:Work
         rdf:about="">
        <dc:format>image/svg+xml</dc:format>
        <dc:type
           rdf:resource="http://purl.org/dc/dcmitype/StillImage" />
        <dc:title></dc:title>
      </cc:Work>
    </rdf:RDF>
  </metadata>
  <defs
     id="defs3725" />
  <g
     transform="matrix(0.8760545,0,0,0.899454,-67.228495,0.05734822)"
     id="g3719">
    <path
       style="fill:#001d74;fill-rule:evenodd;stroke:#000000;stroke-width:1px"
       id="path3717"
       d="m 90.984,9.4056 257.11,-0.40618 0.40618,8.1236 -3.6556,7.3112 -8.1236,6.4989 -5.2803,4.0618 -7.3112,10.154 -6.0927,17.872 -70.269,281.48 -57.677,-0.40618 -74.737,-279.45 -8.5298,-25.589 -3.2494,-5.6865 -4.468,-4.468 -5.6865,-2.8433 -4.0618,-2.4371 -2.4371,-6.0927 v -4.468 l 0.40618,-4.468 z m 148.66,233.15 36.962,-158.82 2.8433,-11.779 0.81235,-21.121 -3.6556,-8.1236 -6.0927,-6.9051 -6.5192,-2.1862 -8.5094,0.9677 -6.0927,7.3112 -5.6865,14.622 -5.6865,10.561 -5.6865,-14.622 -5.6865,-11.779 -6.4989,-6.0927 -5.629,-0.76204 -6.5564,1.5744 -6.9051,5.6865 -5.2803,6.4989 -3.2494,10.561 0.81236,13.81 1.6247,11.373 z"
       inkscape:connector-curvature="0" />
  </g>
</svg>
